module rex.charlielaughton.com

go 1.18

require (
	github.com/davecgh/go-spew v1.1.1 // indirect
	github.com/pmezard/go-difflib v1.0.0 // indirect
	github.com/stretchr/testify v1.10.0 // indirect
	golang.org/x/net v0.34.0 // indirect
	gopkg.in/yaml.v3 v3.0.1 // indirect
)
